<?xml version="1.0" encoding="UTF-8" standalone="no"?>
<svg id="svg3190" xmlns:rdf="http://www.w3.org/1999/02/22-rdf-syntax-ns#" xmlns="http://www.w3.org/2000/svg" height="16px" viewBox="0 0 16 16" width="16px" version="1.1" xmlns:cc="http://creativecommons.org/ns#" xmlns:dc="http://purl.org/dc/elements/1.1/">
 <metadata id="metadata3202">
 </metadata>
 <path id="path3196" fill="#808080" d="M3,2.5c-0.8187003,0-1.5,0.6733132-1.5,1.5v5c0,0.8273703,0.683595,1.5,1.5,1.5h0.71875v3.625l0.84375-0.75,3.15625-2.875h5.28125c0.822724,0,1.5-0.6780654,1.5-1.5v-5c0-0.8283589-0.684481-1.5-1.5-1.5h-10z"/>
</svg>
