<?xml version="1.0" encoding="utf-8"?>
<!DOCTYPE svg PUBLIC "-//W3C//DTD SVG 1.1//EN" "http://www.w3.org/Graphics/SVG/1.1/DTD/svg11.dtd">
<svg version="1.1" id="redo" xmlns="http://www.w3.org/2000/svg" xmlns:xlink="http://www.w3.org/1999/xlink" x="0px" y="0px"
     width="16px" height="16px" viewBox="7 7 18 18" enable-background="new 0 0 32 32" xml:space="preserve">
    <g>
        <path fill-rule="evenodd" clip-rule="evenodd" fill="#4D4D4D" d="M11.835,10.343c-3.124,3.125-3.124,8.189,0,11.314
        		c3.124,3.124,8.189,3.124,11.313,0l-1.414-1.414c-2.344,2.344-6.142,2.344-8.485,0s-2.344-6.142,0-8.486s6.142-2.344,8.485,0
        		L21,12.492h3V9.491l-0.852,0.852C20.024,7.219,14.959,7.219,11.835,10.343z"/>
    </g>
</svg>