<?xml version="1.0" encoding="UTF-8" standalone="no"?>
<svg xmlns="http://www.w3.org/2000/svg" xmlns:xlink="http://www.w3.org/1999/xlink" width="20px" height="20px" viewBox="0 0 512 512">
    <path d="M 432.00,64.00L 192.00,304.00L 80.00,192.00L0.00,272.00L 192.00,464.00L 512.00,144.00 z"/>
</svg>